{
  "title": "Hello World Scenario",
  "description": "Broken scenario 5/14/20 11:14a",
  "difficulty": "beginner",
  "time": "2 minutes",
  "details": {
    "steps": [{
      "title": "Step 1 - Run Command",
      "text": "step1.md"
    }],
    "intro": {
      "text": "intro.md",
      "credits": ""
    },
    "finish": {
      "text": "finish.md"
    }
  },
  "environment": {
    "uimessage1": "\u001b[32mYour Interactive Bash Terminal.\u001b[m\r\n"
  },
  "backend": {
  }
}
